%YAML 1.1
%TAG !u! tag:unity3d.com,2011:
--- !u!1 &1726012754378811544
GameObject:
  m_ObjectHideFlags: 0
  m_CorrespondingSourceObject: {fileID: 0}
  m_PrefabInstance: {fileID: 0}
  m_PrefabAsset: {fileID: 0}
  serializedVersion: 6
  m_Component:
  - component: {fileID: 5923408162737945985}
  - component: {fileID: 1178977347991991581}
  m_Layer: 0
  m_Name: New Palette
  m_TagString: Untagged
  m_Icon: {fileID: 0}
  m_NavMeshLayer: 0
  m_StaticEditorFlags: 0
  m_IsActive: 1
--- !u!4 &5923408162737945985
Transform:
  m_ObjectHideFlags: 0
  m_CorrespondingSourceObject: {fileID: 0}
  m_PrefabInstance: {fileID: 0}
  m_PrefabAsset: {fileID: 0}
  m_GameObject: {fileID: 1726012754378811544}
  m_LocalRotation: {x: 0, y: 0, z: 0, w: 1}
  m_LocalPosition: {x: 0, y: 0, z: 0}
  m_LocalScale: {x: 1, y: 1, z: 1}
  m_ConstrainProportionsScale: 0
  m_Children:
  - {fileID: 5657475015708378333}
  m_Father: {fileID: 0}
  m_RootOrder: 0
  m_LocalEulerAnglesHint: {x: 0, y: 0, z: 0}
--- !u!156049354 &1178977347991991581
Grid:
  m_ObjectHideFlags: 0
  m_CorrespondingSourceObject: {fileID: 0}
  m_PrefabInstance: {fileID: 0}
  m_PrefabAsset: {fileID: 0}
  m_GameObject: {fileID: 1726012754378811544}
  m_Enabled: 1
  m_CellSize: {x: 1, y: 1, z: 0}
  m_CellGap: {x: 0, y: 0, z: 0}
  m_CellLayout: 0
  m_CellSwizzle: 0
--- !u!1 &4246523875521074398
GameObject:
  m_ObjectHideFlags: 0
  m_CorrespondingSourceObject: {fileID: 0}
  m_PrefabInstance: {fileID: 0}
  m_PrefabAsset: {fileID: 0}
  serializedVersion: 6
  m_Component:
  - component: {fileID: 5657475015708378333}
  - component: {fileID: 1379368819577743100}
  - component: {fileID: 5504790034885955810}
  m_Layer: 0
  m_Name: Layer1
  m_TagString: Untagged
  m_Icon: {fileID: 0}
  m_NavMeshLayer: 0
  m_StaticEditorFlags: 0
  m_IsActive: 1
--- !u!4 &5657475015708378333
Transform:
  m_ObjectHideFlags: 0
  m_CorrespondingSourceObject: {fileID: 0}
  m_PrefabInstance: {fileID: 0}
  m_PrefabAsset: {fileID: 0}
  m_GameObject: {fileID: 4246523875521074398}
  m_LocalRotation: {x: -0, y: -0, z: -0, w: 1}
  m_LocalPosition: {x: 0, y: 0, z: 0}
  m_LocalScale: {x: 1, y: 1, z: 1}
  m_ConstrainProportionsScale: 0
  m_Children: []
  m_Father: {fileID: 5923408162737945985}
  m_RootOrder: 0
  m_LocalEulerAnglesHint: {x: 0, y: 0, z: 0}
--- !u!1839735485 &1379368819577743100
Tilemap:
  m_ObjectHideFlags: 0
  m_CorrespondingSourceObject: {fileID: 0}
  m_PrefabInstance: {fileID: 0}
  m_PrefabAsset: {fileID: 0}
  m_GameObject: {fileID: 4246523875521074398}
  m_Enabled: 1
  m_Tiles:
  - first: {x: 2, y: -6, z: 0}
    second:
      serializedVersion: 2
      m_TileIndex: 24
      m_TileSpriteIndex: 24
      m_TileMatrixIndex: 0
      m_TileColorIndex: 0
      m_TileObjectToInstantiateIndex: 65535
      dummyAlignment: 0
      m_AllTileFlags: 1073741825
  - first: {x: 2, y: -5, z: 0}
    second:
      serializedVersion: 2
      m_TileIndex: 23
      m_TileSpriteIndex: 23
      m_TileMatrixIndex: 0
      m_TileColorIndex: 0
      m_TileObjectToInstantiateIndex: 65535
      dummyAlignment: 0
      m_AllTileFlags: 1073741825
  - first: {x: 0, y: -4, z: 0}
    second:
      serializedVersion: 2
      m_TileIndex: 20
      m_TileSpriteIndex: 20
      m_TileMatrixIndex: 0
      m_TileColorIndex: 0
      m_TileObjectToInstantiateIndex: 65535
      dummyAlignment: 0
      m_AllTileFlags: 1073741825
  - first: {x: 2, y: -4, z: 0}
    second:
      serializedVersion: 2
      m_TileIndex: 22
      m_TileSpriteIndex: 22
      m_TileMatrixIndex: 0
      m_TileColorIndex: 0
      m_TileObjectToInstantiateIndex: 65535
      dummyAlignment: 0
      m_AllTileFlags: 1073741825
  - first: {x: 2, y: -3, z: 0}
    second:
      serializedVersion: 2
      m_TileIndex: 21
      m_TileSpriteIndex: 21
      m_TileMatrixIndex: 0
      m_TileColorIndex: 0
      m_TileObjectToInstantiateIndex: 65535
      dummyAlignment: 0
      m_AllTileFlags: 1073741825
  - first: {x: -2, y: -1, z: 0}
    second:
      serializedVersion: 2
      m_TileIndex: 16
      m_TileSpriteIndex: 16
      m_TileMatrixIndex: 0
      m_TileColorIndex: 0
      m_TileObjectToInstantiateIndex: 65535
      dummyAlignment: 0
      m_AllTileFlags: 1073741825
  - first: {x: -1, y: -1, z: 0}
    second:
      serializedVersion: 2
      m_TileIndex: 17
      m_TileSpriteIndex: 17
      m_TileMatrixIndex: 0
      m_TileColorIndex: 0
      m_TileObjectToInstantiateIndex: 65535
      dummyAlignment: 0
      m_AllTileFlags: 1073741825
  - first: {x: 0, y: -1, z: 0}
    second:
      serializedVersion: 2
      m_TileIndex: 18
      m_TileSpriteIndex: 18
      m_TileMatrixIndex: 0
      m_TileColorIndex: 0
      m_TileObjectToInstantiateIndex: 65535
      dummyAlignment: 0
      m_AllTileFlags: 1073741825
  - first: {x: 1, y: -1, z: 0}
    second:
      serializedVersion: 2
      m_TileIndex: 19
      m_TileSpriteIndex: 19
      m_TileMatrixIndex: 0
      m_TileColorIndex: 0
      m_TileObjectToInstantiateIndex: 65535
      dummyAlignment: 0
      m_AllTileFlags: 1073741825
  - first: {x: -2, y: 0, z: 0}
    second:
      serializedVersion: 2
      m_TileIndex: 12
      m_TileSpriteIndex: 12
      m_TileMatrixIndex: 0
      m_TileColorIndex: 0
      m_TileObjectToInstantiateIndex: 65535
      dummyAlignment: 0
      m_AllTileFlags: 1073741825
  - first: {x: -1, y: 0, z: 0}
    second:
      serializedVersion: 2
      m_TileIndex: 13
      m_TileSpriteIndex: 13
      m_TileMatrixIndex: 0
      m_TileColorIndex: 0
      m_TileObjectToInstantiateIndex: 65535
      dummyAlignment: 0
      m_AllTileFlags: 1073741825
  - first: {x: 0, y: 0, z: 0}
    second:
      serializedVersion: 2
      m_TileIndex: 14
      m_TileSpriteIndex: 14
      m_TileMatrixIndex: 0
      m_TileColorIndex: 0
      m_TileObjectToInstantiateIndex: 65535
      dummyAlignment: 0
      m_AllTileFlags: 1073741825
  - first: {x: 1, y: 0, z: 0}
    second:
      serializedVersion: 2
      m_TileIndex: 15
      m_TileSpriteIndex: 15
      m_TileMatrixIndex: 0
      m_TileColorIndex: 0
      m_TileObjectToInstantiateIndex: 65535
      dummyAlignment: 0
      m_AllTileFlags: 1073741825
  - first: {x: -2, y: 1, z: 0}
    second:
      serializedVersion: 2
      m_TileIndex: 6
      m_TileSpriteIndex: 6
      m_TileMatrixIndex: 0
      m_TileColorIndex: 0
      m_TileObjectToInstantiateIndex: 65535
      dummyAlignment: 0
      m_AllTileFlags: 1073741825
  - first: {x: -1, y: 1, z: 0}
    second:
      serializedVersion: 2
      m_TileIndex: 7
      m_TileSpriteIndex: 7
      m_TileMatrixIndex: 0
      m_TileColorIndex: 0
      m_TileObjectToInstantiateIndex: 65535
      dummyAlignment: 0
      m_AllTileFlags: 1073741825
  - first: {x: 0, y: 1, z: 0}
    second:
      serializedVersion: 2
      m_TileIndex: 8
      m_TileSpriteIndex: 8
      m_TileMatrixIndex: 0
      m_TileColorIndex: 0
      m_TileObjectToInstantiateIndex: 65535
      dummyAlignment: 0
      m_AllTileFlags: 1073741825
  - first: {x: 1, y: 1, z: 0}
    second:
      serializedVersion: 2
      m_TileIndex: 9
      m_TileSpriteIndex: 9
      m_TileMatrixIndex: 0
      m_TileColorIndex: 0
      m_TileObjectToInstantiateIndex: 65535
      dummyAlignment: 0
      m_AllTileFlags: 1073741825
  - first: {x: 2, y: 1, z: 0}
    second:
      serializedVersion: 2
      m_TileIndex: 10
      m_TileSpriteIndex: 10
      m_TileMatrixIndex: 0
      m_TileColorIndex: 0
      m_TileObjectToInstantiateIndex: 65535
      dummyAlignment: 0
      m_AllTileFlags: 1073741825
  - first: {x: 3, y: 1, z: 0}
    second:
      serializedVersion: 2
      m_TileIndex: 11
      m_TileSpriteIndex: 11
      m_TileMatrixIndex: 0
      m_TileColorIndex: 0
      m_TileObjectToInstantiateIndex: 65535
      dummyAlignment: 0
      m_AllTileFlags: 1073741825
  - first: {x: -2, y: 2, z: 0}
    second:
      serializedVersion: 2
      m_TileIndex: 0
      m_TileSpriteIndex: 0
      m_TileMatrixIndex: 0
      m_TileColorIndex: 0
      m_TileObjectToInstantiateIndex: 65535
      dummyAlignment: 0
      m_AllTileFlags: 1073741825
  - first: {x: -1, y: 2, z: 0}
    second:
      serializedVersion: 2
      m_TileIndex: 1
      m_TileSpriteIndex: 1
      m_TileMatrixIndex: 0
      m_TileColorIndex: 0
      m_TileObjectToInstantiateIndex: 65535
      dummyAlignment: 0
      m_AllTileFlags: 1073741825
  - first: {x: 0, y: 2, z: 0}
    second:
      serializedVersion: 2
      m_TileIndex: 2
      m_TileSpriteIndex: 2
      m_TileMatrixIndex: 0
      m_TileColorIndex: 0
      m_TileObjectToInstantiateIndex: 65535
      dummyAlignment: 0
      m_AllTileFlags: 1073741825
  - first: {x: 1, y: 2, z: 0}
    second:
      serializedVersion: 2
      m_TileIndex: 3
      m_TileSpriteIndex: 3
      m_TileMatrixIndex: 0
      m_TileColorIndex: 0
      m_TileObjectToInstantiateIndex: 65535
      dummyAlignment: 0
      m_AllTileFlags: 1073741825
  - first: {x: 2, y: 2, z: 0}
    second:
      serializedVersion: 2
      m_TileIndex: 4
      m_TileSpriteIndex: 4
      m_TileMatrixIndex: 0
      m_TileColorIndex: 0
      m_TileObjectToInstantiateIndex: 65535
      dummyAlignment: 0
      m_AllTileFlags: 1073741825
  - first: {x: 3, y: 2, z: 0}
    second:
      serializedVersion: 2
      m_TileIndex: 5
      m_TileSpriteIndex: 5
      m_TileMatrixIndex: 0
      m_TileColorIndex: 0
      m_TileObjectToInstantiateIndex: 65535
      dummyAlignment: 0
      m_AllTileFlags: 1073741825
  m_AnimatedTiles: {}
  m_TileAssetArray:
  - m_RefCount: 1
    m_Data: {fileID: 11400000, guid: 8eaeb7aeeb33535498a7b953c840986f, type: 2}
  - m_RefCount: 1
    m_Data: {fileID: 11400000, guid: 9be4419c69fa73240bbd2bf15b403807, type: 2}
  - m_RefCount: 1
    m_Data: {fileID: 11400000, guid: 0ddb6e35576be3545b83253431a2e708, type: 2}
  - m_RefCount: 1
    m_Data: {fileID: 11400000, guid: 10f841bc458e7b847a872a8c98a25583, type: 2}
  - m_RefCount: 1
    m_Data: {fileID: 11400000, guid: 5e85e6d8e6a1128448fd0b07513c7abd, type: 2}
  - m_RefCount: 1
    m_Data: {fileID: 11400000, guid: 028038eb794264f458cad94426d03e71, type: 2}
  - m_RefCount: 1
    m_Data: {fileID: 11400000, guid: 1dc8c082196791141ab4f918cfdc84bb, type: 2}
  - m_RefCount: 1
    m_Data: {fileID: 11400000, guid: 88d2357633223e5488b245401aba2827, type: 2}
  - m_RefCount: 1
    m_Data: {fileID: 11400000, guid: 31e46947e9f075745909c34bd651d29f, type: 2}
  - m_RefCount: 1
    m_Data: {fileID: 11400000, guid: 72b1ada20eb58b0439ff2cb853749c60, type: 2}
  - m_RefCount: 1
    m_Data: {fileID: 11400000, guid: ed2df63f75e340149a935414981fe8db, type: 2}
  - m_RefCount: 1
    m_Data: {fileID: 11400000, guid: aab3e6b87b50f134ab687fac00801599, type: 2}
  - m_RefCount: 1
    m_Data: {fileID: 11400000, guid: 595068dbfc09f4242bdd7b338c1961f4, type: 2}
  - m_RefCount: 1
    m_Data: {fileID: 11400000, guid: cc097a20cbf756e4395ccf4c2af647ed, type: 2}
  - m_RefCount: 1
    m_Data: {fileID: 11400000, guid: 1ce77907dbb4d244e82818e4752a3504, type: 2}
  - m_RefCount: 1
    m_Data: {fileID: 11400000, guid: a1f050b38bb5e1442a539f6d042e00e5, type: 2}
  - m_RefCount: 1
    m_Data: {fileID: 11400000, guid: 2e3cb298ba41a61479aa248a08433149, type: 2}
  - m_RefCount: 1
    m_Data: {fileID: 11400000, guid: 0e7cdb08179cd1b42a877695eb4561be, type: 2}
  - m_RefCount: 1
    m_Data: {fileID: 11400000, guid: 27642ad9616e1834db9bf903705a413f, type: 2}
  - m_RefCount: 1
    m_Data: {fileID: 11400000, guid: a4d131297eb54c544b18a66f8afe8897, type: 2}
  - m_RefCount: 1
    m_Data: {fileID: 11400000, guid: c4596b5f22ad8d943aa5847ac9c080db, type: 2}
  - m_RefCount: 1
    m_Data: {fileID: 11400000, guid: eea41cf74dfaed94688fb0cc2125a319, type: 2}
  - m_RefCount: 1
    m_Data: {fileID: 11400000, guid: 96ba67abae3dee647b7239c577fc9be8, type: 2}
  - m_RefCount: 1
    m_Data: {fileID: 11400000, guid: eacce1e1db8e63c40856d7696de9e50d, type: 2}
  - m_RefCount: 1
    m_Data: {fileID: 11400000, guid: 86180d6c389a4ee458ba7d32f3563d3f, type: 2}
  m_TileSpriteArray:
  - m_RefCount: 1
    m_Data: {fileID: 654525143, guid: f7af4e1f268f1224baac7c846110d1f7, type: 3}
  - m_RefCount: 1
    m_Data: {fileID: 1508351349, guid: f7af4e1f268f1224baac7c846110d1f7, type: 3}
  - m_RefCount: 1
    m_Data: {fileID: 1756314865, guid: f7af4e1f268f1224baac7c846110d1f7, type: 3}
  - m_RefCount: 1
    m_Data: {fileID: -1595663320, guid: f7af4e1f268f1224baac7c846110d1f7, type: 3}
  - m_RefCount: 1
    m_Data: {fileID: -1587685616, guid: f7af4e1f268f1224baac7c846110d1f7, type: 3}
  - m_RefCount: 1
    m_Data: {fileID: -47717090, guid: f7af4e1f268f1224baac7c846110d1f7, type: 3}
  - m_RefCount: 1
    m_Data: {fileID: -831971029, guid: f7af4e1f268f1224baac7c846110d1f7, type: 3}
  - m_RefCount: 1
    m_Data: {fileID: -2009617799, guid: f7af4e1f268f1224baac7c846110d1f7, type: 3}
  - m_RefCount: 1
    m_Data: {fileID: -883231902, guid: f7af4e1f268f1224baac7c846110d1f7, type: 3}
  - m_RefCount: 1
    m_Data: {fileID: -1541391705, guid: f7af4e1f268f1224baac7c846110d1f7, type: 3}
  - m_RefCount: 1
    m_Data: {fileID: 2028204831, guid: f7af4e1f268f1224baac7c846110d1f7, type: 3}
  - m_RefCount: 1
    m_Data: {fileID: 697320377, guid: f7af4e1f268f1224baac7c846110d1f7, type: 3}
  - m_RefCount: 1
    m_Data: {fileID: 763633187, guid: f7af4e1f268f1224baac7c846110d1f7, type: 3}
  - m_RefCount: 1
    m_Data: {fileID: -649542616, guid: f7af4e1f268f1224baac7c846110d1f7, type: 3}
  - m_RefCount: 1
    m_Data: {fileID: 1280822398, guid: f7af4e1f268f1224baac7c846110d1f7, type: 3}
  - m_RefCount: 1
    m_Data: {fileID: 1863335372, guid: f7af4e1f268f1224baac7c846110d1f7, type: 3}
  - m_RefCount: 1
    m_Data: {fileID: -965107699, guid: f7af4e1f268f1224baac7c846110d1f7, type: 3}
  - m_RefCount: 1
    m_Data: {fileID: -555077202, guid: f7af4e1f268f1224baac7c846110d1f7, type: 3}
  - m_RefCount: 1
    m_Data: {fileID: 546733563, guid: f7af4e1f268f1224baac7c846110d1f7, type: 3}
  - m_RefCount: 1
    m_Data: {fileID: 1479944196, guid: f7af4e1f268f1224baac7c846110d1f7, type: 3}
  - m_RefCount: 1
    m_Data: {fileID: -1978352795, guid: 7e7ba0e761be8f6459ecf25d9d3c0ad5, type: 3}
  - m_RefCount: 1
    m_Data: {fileID: -1377036957, guid: 0904d1f765138ec4a8e2de19dd183e4e, type: 3}
  - m_RefCount: 1
    m_Data: {fileID: -1008577238, guid: 0904d1f765138ec4a8e2de19dd183e4e, type: 3}
  - m_RefCount: 1
    m_Data: {fileID: -685370469, guid: 0904d1f765138ec4a8e2de19dd183e4e, type: 3}
  - m_RefCount: 1
    m_Data: {fileID: 1451507536, guid: 0904d1f765138ec4a8e2de19dd183e4e, type: 3}
  m_TileMatrixArray:
  - m_RefCount: 25
    m_Data:
      e00: 1
      e01: 0
      e02: 0
      e03: 0
      e10: 0
      e11: 1
      e12: 0
      e13: 0
      e20: 0
      e21: 0
      e22: 1
      e23: 0
      e30: 0
      e31: 0
      e32: 0
      e33: 1
  m_TileColorArray:
  - m_RefCount: 25
    m_Data: {r: 1, g: 1, b: 1, a: 1}
  m_TileObjectToInstantiateArray: []
  m_AnimationFrameRate: 1
  m_Color: {r: 1, g: 1, b: 1, a: 1}
  m_Origin: {x: -2, y: -6, z: 0}
  m_Size: {x: 6, y: 9, z: 1}
  m_TileAnchor: {x: 0.5, y: 0.5, z: 0}
  m_TileOrientation: 0
  m_TileOrientationMatrix:
    e00: 1
    e01: 0
    e02: 0
    e03: 0
    e10: 0
    e11: 1
    e12: 0
    e13: 0
    e20: 0
    e21: 0
    e22: 1
    e23: 0
    e30: 0
    e31: 0
    e32: 0
    e33: 1
--- !u!483693784 &5504790034885955810
TilemapRenderer:
  m_ObjectHideFlags: 0
  m_CorrespondingSourceObject: {fileID: 0}
  m_PrefabInstance: {fileID: 0}
  m_PrefabAsset: {fileID: 0}
  m_GameObject: {fileID: 4246523875521074398}
  m_Enabled: 1
  m_CastShadows: 0
  m_ReceiveShadows: 0
  m_DynamicOccludee: 0
  m_StaticShadowCaster: 0
  m_MotionVectors: 1
  m_LightProbeUsage: 0
  m_ReflectionProbeUsage: 0
  m_RayTracingMode: 0
  m_RayTraceProcedural: 0
  m_RenderingLayerMask: 1
  m_RendererPriority: 0
  m_Materials:
  - {fileID: 10754, guid: 0000000000000000f000000000000000, type: 0}
  m_StaticBatchInfo:
    firstSubMesh: 0
    subMeshCount: 0
  m_StaticBatchRoot: {fileID: 0}
  m_ProbeAnchor: {fileID: 0}
  m_LightProbeVolumeOverride: {fileID: 0}
  m_ScaleInLightmap: 1
  m_ReceiveGI: 1
  m_PreserveUVs: 0
  m_IgnoreNormalsForChartDetection: 0
  m_ImportantGI: 0
  m_StitchLightmapSeams: 1
  m_SelectedEditorRenderState: 0
  m_MinimumChartSize: 4
  m_AutoUVMaxDistance: 0.5
  m_AutoUVMaxAngle: 89
  m_LightmapParameters: {fileID: 0}
  m_SortingLayerID: 0
  m_SortingLayer: 0
  m_SortingOrder: 0
  m_ChunkSize: {x: 32, y: 32, z: 32}
  m_ChunkCullingBounds: {x: 0, y: 0, z: 0}
  m_MaxChunkCount: 16
  m_MaxFrameAge: 16
  m_SortOrder: 0
  m_Mode: 0
  m_DetectChunkCullingBounds: 0
  m_MaskInteraction: 0
--- !u!114 &4835016853597555106
MonoBehaviour:
  m_ObjectHideFlags: 0
  m_CorrespondingSourceObject: {fileID: 0}
  m_PrefabInstance: {fileID: 0}
  m_PrefabAsset: {fileID: 0}
  m_GameObject: {fileID: 0}
  m_Enabled: 1
  m_EditorHideFlags: 0
  m_Script: {fileID: 12395, guid: 0000000000000000e000000000000000, type: 0}
  m_Name: Palette Settings
  m_EditorClassIdentifier: 
  cellSizing: 0
  m_TransparencySortMode: 0
  m_TransparencySortAxis: {x: 0, y: 0, z: 1}
