%YAML 1.1
%TAG !u! tag:unity3d.com,2011:
--- !u!74 &7400000
AnimationClip:
  m_ObjectHideFlags: 0
  m_CorrespondingSourceObject: {fileID: 0}
  m_PrefabInstance: {fileID: 0}
  m_PrefabAsset: {fileID: 0}
  m_Name: muerto
  serializedVersion: 6
  m_Legacy: 0
  m_Compressed: 0
  m_UseHighQualityCurve: 1
  m_RotationCurves: []
  m_CompressedRotationCurves: []
  m_EulerCurves: []
  m_PositionCurves: []
  m_ScaleCurves: []
  m_FloatCurves: []
  m_PPtrCurves:
  - curve:
    - time: 0
      value: {fileID: 1939402050, guid: 0e6e9c7b93e586840a568bfe0e6999fe, type: 3}
    - time: 0.083333336
      value: {fileID: 1326446531, guid: 0e6e9c7b93e586840a568bfe0e6999fe, type: 3}
    - time: 0.16666667
      value: {fileID: 1808433212, guid: 0e6e9c7b93e586840a568bfe0e6999fe, type: 3}
    - time: 0.25
      value: {fileID: -1648803955, guid: 0e6e9c7b93e586840a568bfe0e6999fe, type: 3}
    - time: 0.33333334
      value: {fileID: 119213126, guid: 0e6e9c7b93e586840a568bfe0e6999fe, type: 3}
    - time: 0.41666666
      value: {fileID: -25974113, guid: 0e6e9c7b93e586840a568bfe0e6999fe, type: 3}
    - time: 0.5
      value: {fileID: 1934697360, guid: 0e6e9c7b93e586840a568bfe0e6999fe, type: 3}
    - time: 0.5833333
      value: {fileID: -1094358896, guid: 0e6e9c7b93e586840a568bfe0e6999fe, type: 3}
    - time: 0.6666667
      value: {fileID: -1499037400, guid: 0e6e9c7b93e586840a568bfe0e6999fe, type: 3}
    - time: 0.75
      value: {fileID: -166599820, guid: 6aaba2ba64d51434f8fd960883eec9b1, type: 3}
    - time: 0.8333333
      value: {fileID: -131921013, guid: 6aaba2ba64d51434f8fd960883eec9b1, type: 3}
    - time: 0.9166667
      value: {fileID: 582768771, guid: 6aaba2ba64d51434f8fd960883eec9b1, type: 3}
    - time: 1
      value: {fileID: 160471869, guid: 6aaba2ba64d51434f8fd960883eec9b1, type: 3}
    - time: 1.0833334
      value: {fileID: -1491449016, guid: 6aaba2ba64d51434f8fd960883eec9b1, type: 3}
    - time: 1.1666666
      value: {fileID: 1119373125, guid: 6aaba2ba64d51434f8fd960883eec9b1, type: 3}
    - time: 1.25
      value: {fileID: -1735161190, guid: 6aaba2ba64d51434f8fd960883eec9b1, type: 3}
    - time: 1.3333334
      value: {fileID: 117585967, guid: 6aaba2ba64d51434f8fd960883eec9b1, type: 3}
    - time: 1.4166666
      value: {fileID: -1021584743, guid: 6aaba2ba64d51434f8fd960883eec9b1, type: 3}
    - time: 1.5
      value: {fileID: 1832607272, guid: 10fd8908d198e704698fecdc6e775de9, type: 3}
    - time: 1.5833334
      value: {fileID: -839623352, guid: 10fd8908d198e704698fecdc6e775de9, type: 3}
    - time: 1.6666666
      value: {fileID: -145707010, guid: 10fd8908d198e704698fecdc6e775de9, type: 3}
    - time: 1.75
      value: {fileID: -1930556053, guid: 10fd8908d198e704698fecdc6e775de9, type: 3}
    - time: 1.8333334
      value: {fileID: -911328242, guid: 10fd8908d198e704698fecdc6e775de9, type: 3}
    - time: 1.9166666
      value: {fileID: 1106582638, guid: 10fd8908d198e704698fecdc6e775de9, type: 3}
    - time: 2
      value: {fileID: 1974780027, guid: 10fd8908d198e704698fecdc6e775de9, type: 3}
    - time: 2.0833333
      value: {fileID: -263981626, guid: 10fd8908d198e704698fecdc6e775de9, type: 3}
    - time: 2.1666667
      value: {fileID: -1487812066, guid: 10fd8908d198e704698fecdc6e775de9, type: 3}
    - time: 2.25
      value: {fileID: 795889090, guid: 41c447bef49f5ea489b8b50a558b7bbc, type: 3}
    - time: 2.3333333
      value: {fileID: 462034793, guid: 41c447bef49f5ea489b8b50a558b7bbc, type: 3}
    - time: 2.4166667
      value: {fileID: 140152835, guid: 41c447bef49f5ea489b8b50a558b7bbc, type: 3}
    - time: 10
      value: {fileID: -1940651554, guid: 41c447bef49f5ea489b8b50a558b7bbc, type: 3}
    - time: 10.083333
      value: {fileID: -1946937488, guid: 41c447bef49f5ea489b8b50a558b7bbc, type: 3}
    - time: 10.166667
      value: {fileID: 1635758854, guid: 41c447bef49f5ea489b8b50a558b7bbc, type: 3}
    - time: 10.25
      value: {fileID: -1089695830, guid: 41c447bef49f5ea489b8b50a558b7bbc, type: 3}
    - time: 10.333333
      value: {fileID: -877559490, guid: 41c447bef49f5ea489b8b50a558b7bbc, type: 3}
    - time: 10.416667
      value: {fileID: -291595079, guid: 41c447bef49f5ea489b8b50a558b7bbc, type: 3}
    - time: 10.5
      value: {fileID: 1981343041, guid: 41c447bef49f5ea489b8b50a558b7bbc, type: 3}
    attribute: m_Sprite
    path: 
    classID: 212
    script: {fileID: 0}
  m_SampleRate: 60
  m_WrapMode: 0
  m_Bounds:
    m_Center: {x: 0, y: 0, z: 0}
    m_Extent: {x: 0, y: 0, z: 0}
  m_ClipBindingConstant:
    genericBindings:
    - serializedVersion: 2
      path: 0
      attribute: 0
      script: {fileID: 0}
      typeID: 212
      customType: 23
      isPPtrCurve: 1
    pptrCurveMapping:
    - {fileID: 1939402050, guid: 0e6e9c7b93e586840a568bfe0e6999fe, type: 3}
    - {fileID: 1326446531, guid: 0e6e9c7b93e586840a568bfe0e6999fe, type: 3}
    - {fileID: 1808433212, guid: 0e6e9c7b93e586840a568bfe0e6999fe, type: 3}
    - {fileID: -1648803955, guid: 0e6e9c7b93e586840a568bfe0e6999fe, type: 3}
    - {fileID: 119213126, guid: 0e6e9c7b93e586840a568bfe0e6999fe, type: 3}
    - {fileID: -25974113, guid: 0e6e9c7b93e586840a568bfe0e6999fe, type: 3}
    - {fileID: 1934697360, guid: 0e6e9c7b93e586840a568bfe0e6999fe, type: 3}
    - {fileID: -1094358896, guid: 0e6e9c7b93e586840a568bfe0e6999fe, type: 3}
    - {fileID: -1499037400, guid: 0e6e9c7b93e586840a568bfe0e6999fe, type: 3}
    - {fileID: -166599820, guid: 6aaba2ba64d51434f8fd960883eec9b1, type: 3}
    - {fileID: -131921013, guid: 6aaba2ba64d51434f8fd960883eec9b1, type: 3}
    - {fileID: 582768771, guid: 6aaba2ba64d51434f8fd960883eec9b1, type: 3}
    - {fileID: 160471869, guid: 6aaba2ba64d51434f8fd960883eec9b1, type: 3}
    - {fileID: -1491449016, guid: 6aaba2ba64d51434f8fd960883eec9b1, type: 3}
    - {fileID: 1119373125, guid: 6aaba2ba64d51434f8fd960883eec9b1, type: 3}
    - {fileID: -1735161190, guid: 6aaba2ba64d51434f8fd960883eec9b1, type: 3}
    - {fileID: 117585967, guid: 6aaba2ba64d51434f8fd960883eec9b1, type: 3}
    - {fileID: -1021584743, guid: 6aaba2ba64d51434f8fd960883eec9b1, type: 3}
    - {fileID: 1832607272, guid: 10fd8908d198e704698fecdc6e775de9, type: 3}
    - {fileID: -839623352, guid: 10fd8908d198e704698fecdc6e775de9, type: 3}
    - {fileID: -145707010, guid: 10fd8908d198e704698fecdc6e775de9, type: 3}
    - {fileID: -1930556053, guid: 10fd8908d198e704698fecdc6e775de9, type: 3}
    - {fileID: -911328242, guid: 10fd8908d198e704698fecdc6e775de9, type: 3}
    - {fileID: 1106582638, guid: 10fd8908d198e704698fecdc6e775de9, type: 3}
    - {fileID: 1974780027, guid: 10fd8908d198e704698fecdc6e775de9, type: 3}
    - {fileID: -263981626, guid: 10fd8908d198e704698fecdc6e775de9, type: 3}
    - {fileID: -1487812066, guid: 10fd8908d198e704698fecdc6e775de9, type: 3}
    - {fileID: 795889090, guid: 41c447bef49f5ea489b8b50a558b7bbc, type: 3}
    - {fileID: 462034793, guid: 41c447bef49f5ea489b8b50a558b7bbc, type: 3}
    - {fileID: 140152835, guid: 41c447bef49f5ea489b8b50a558b7bbc, type: 3}
    - {fileID: -1940651554, guid: 41c447bef49f5ea489b8b50a558b7bbc, type: 3}
    - {fileID: -1946937488, guid: 41c447bef49f5ea489b8b50a558b7bbc, type: 3}
    - {fileID: 1635758854, guid: 41c447bef49f5ea489b8b50a558b7bbc, type: 3}
    - {fileID: -1089695830, guid: 41c447bef49f5ea489b8b50a558b7bbc, type: 3}
    - {fileID: -877559490, guid: 41c447bef49f5ea489b8b50a558b7bbc, type: 3}
    - {fileID: -291595079, guid: 41c447bef49f5ea489b8b50a558b7bbc, type: 3}
    - {fileID: 1981343041, guid: 41c447bef49f5ea489b8b50a558b7bbc, type: 3}
  m_AnimationClipSettings:
    serializedVersion: 2
    m_AdditiveReferencePoseClip: {fileID: 0}
    m_AdditiveReferencePoseTime: 0
    m_StartTime: 0
    m_StopTime: 10.516666
    m_OrientationOffsetY: 0
    m_Level: 0
    m_CycleOffset: 0
    m_HasAdditiveReferencePose: 0
    m_LoopTime: 0
    m_LoopBlend: 0
    m_LoopBlendOrientation: 0
    m_LoopBlendPositionY: 0
    m_LoopBlendPositionXZ: 0
    m_KeepOriginalOrientation: 0
    m_KeepOriginalPositionY: 1
    m_KeepOriginalPositionXZ: 0
    m_HeightFromFeet: 0
    m_Mirror: 0
  m_EditorCurves: []
  m_EulerEditorCurves: []
  m_HasGenericRootTransform: 0
  m_HasMotionFloatCurves: 0
  m_Events: []
