%YAML 1.1
%TAG !u! tag:unity3d.com,2011:
--- !u!74 &7400000
AnimationClip:
  m_ObjectHideFlags: 0
  m_CorrespondingSourceObject: {fileID: 0}
  m_PrefabInstance: {fileID: 0}
  m_PrefabAsset: {fileID: 0}
  m_Name: pilar
  serializedVersion: 6
  m_Legacy: 0
  m_Compressed: 0
  m_UseHighQualityCurve: 1
  m_RotationCurves: []
  m_CompressedRotationCurves: []
  m_EulerCurves: []
  m_PositionCurves: []
  m_ScaleCurves: []
  m_FloatCurves: []
  m_PPtrCurves:
  - curve:
    - time: 0
      value: {fileID: -279374668, guid: cb1a45df52bd7df4e9364a5b5d4e06f0, type: 3}
    - time: 0.083333336
      value: {fileID: -1698491620, guid: cb1a45df52bd7df4e9364a5b5d4e06f0, type: 3}
    - time: 0.16666667
      value: {fileID: 2143519703, guid: cb1a45df52bd7df4e9364a5b5d4e06f0, type: 3}
    - time: 0.25
      value: {fileID: -844230136, guid: cb1a45df52bd7df4e9364a5b5d4e06f0, type: 3}
    - time: 0.33333334
      value: {fileID: 545426665, guid: cb1a45df52bd7df4e9364a5b5d4e06f0, type: 3}
    - time: 0.41666666
      value: {fileID: 1099597115, guid: cb1a45df52bd7df4e9364a5b5d4e06f0, type: 3}
    - time: 0.5
      value: {fileID: -1640018626, guid: cb1a45df52bd7df4e9364a5b5d4e06f0, type: 3}
    - time: 0.5833333
      value: {fileID: -486520605, guid: cb1a45df52bd7df4e9364a5b5d4e06f0, type: 3}
    - time: 0.6666667
      value: {fileID: -2106935769, guid: cb1a45df52bd7df4e9364a5b5d4e06f0, type: 3}
    - time: 0.75
      value: {fileID: 23429916, guid: cb1a45df52bd7df4e9364a5b5d4e06f0, type: 3}
    - time: 0.8333333
      value: {fileID: -1429612481, guid: cb1a45df52bd7df4e9364a5b5d4e06f0, type: 3}
    - time: 0.9166667
      value: {fileID: 1286958927, guid: cb1a45df52bd7df4e9364a5b5d4e06f0, type: 3}
    - time: 1
      value: {fileID: -1632593109, guid: cb1a45df52bd7df4e9364a5b5d4e06f0, type: 3}
    - time: 1.1666666
      value: {fileID: -844230136, guid: cb1a45df52bd7df4e9364a5b5d4e06f0, type: 3}
    attribute: m_Sprite
    path: 
    classID: 212
    script: {fileID: 0}
  m_SampleRate: 60
  m_WrapMode: 0
  m_Bounds:
    m_Center: {x: 0, y: 0, z: 0}
    m_Extent: {x: 0, y: 0, z: 0}
  m_ClipBindingConstant:
    genericBindings:
    - serializedVersion: 2
      path: 0
      attribute: 0
      script: {fileID: 0}
      typeID: 212
      customType: 23
      isPPtrCurve: 1
    pptrCurveMapping:
    - {fileID: -279374668, guid: cb1a45df52bd7df4e9364a5b5d4e06f0, type: 3}
    - {fileID: -1698491620, guid: cb1a45df52bd7df4e9364a5b5d4e06f0, type: 3}
    - {fileID: 2143519703, guid: cb1a45df52bd7df4e9364a5b5d4e06f0, type: 3}
    - {fileID: -844230136, guid: cb1a45df52bd7df4e9364a5b5d4e06f0, type: 3}
    - {fileID: 545426665, guid: cb1a45df52bd7df4e9364a5b5d4e06f0, type: 3}
    - {fileID: 1099597115, guid: cb1a45df52bd7df4e9364a5b5d4e06f0, type: 3}
    - {fileID: -1640018626, guid: cb1a45df52bd7df4e9364a5b5d4e06f0, type: 3}
    - {fileID: -486520605, guid: cb1a45df52bd7df4e9364a5b5d4e06f0, type: 3}
    - {fileID: -2106935769, guid: cb1a45df52bd7df4e9364a5b5d4e06f0, type: 3}
    - {fileID: 23429916, guid: cb1a45df52bd7df4e9364a5b5d4e06f0, type: 3}
    - {fileID: -1429612481, guid: cb1a45df52bd7df4e9364a5b5d4e06f0, type: 3}
    - {fileID: 1286958927, guid: cb1a45df52bd7df4e9364a5b5d4e06f0, type: 3}
    - {fileID: -1632593109, guid: cb1a45df52bd7df4e9364a5b5d4e06f0, type: 3}
    - {fileID: -844230136, guid: cb1a45df52bd7df4e9364a5b5d4e06f0, type: 3}
  m_AnimationClipSettings:
    serializedVersion: 2
    m_AdditiveReferencePoseClip: {fileID: 0}
    m_AdditiveReferencePoseTime: 0
    m_StartTime: 0
    m_StopTime: 1.1833333
    m_OrientationOffsetY: 0
    m_Level: 0
    m_CycleOffset: 0
    m_HasAdditiveReferencePose: 0
    m_LoopTime: 0
    m_LoopBlend: 0
    m_LoopBlendOrientation: 0
    m_LoopBlendPositionY: 0
    m_LoopBlendPositionXZ: 0
    m_KeepOriginalOrientation: 0
    m_KeepOriginalPositionY: 1
    m_KeepOriginalPositionXZ: 0
    m_HeightFromFeet: 0
    m_Mirror: 0
  m_EditorCurves: []
  m_EulerEditorCurves: []
  m_HasGenericRootTransform: 0
  m_HasMotionFloatCurves: 0
  m_Events: []
